Buckman #1
Buckman #10
Buckman #11
Buckman #12
Buckman #13
Buckman #2
Buckman #3
Buckman #4
Buckman #5
Buckman #6
Buckman #7
Buckman #7R
Buckman #8
Buckman #9
CdV-R-15-3_4
CdV-R37-2_2
DT-10_1
DT-5A_1
DT-9_1
G-1A_1
G-2A_1
G-3 Piezometer
G-3A_1
G-4A_1
G-4_1
G-5A_1
LA-1A_1
LA-1B_1
LA-2_1
LA-3_1
LA-4_1
LA-5_1
LA-6_1
O-1_1
O-4_1
Open Borehole
PM-1_1
PM-2_1
PM-3_1
PM-4_1
PM-5_1
TW-1_1
TW-2_1a
TW-3_1
TW-4_1
TW-8_1
R-1_1
R-2_1
R-4_1
R-5_3
R-6_1
R-7_3
R-8_1
R-9_1
R-10a_1
R-11_1
R-12 Temp_1
R-12_3
R-13_1
R-14_1
R-15_1
R-16_1
R-16r_1
R-17_1
R-18_1
R-19_3
R-20_1
R-21_1
R-22_1
R-23_1
R-24_1
R-25_5
R-26_2 (Lower)
R-27_1
R-28_1
R-29_1
R-30_1
R-31_2
R-32_1
R-33_1
R-34_1
R-35b_1
R-36_1
R-37_2
R-38_1
R-39_1
R-40_2
R-41_2
R-42_1
R-43_1
R-44_1
R-45_1
R-46_1
R-48_1
R-49_1
R-50_1
R-51_1
R-52_1
R-53_1
R-54_1
R-55_1
R-56_1
R-57_1
R-60_1
R-61_1
R-62_1
R-63_1
